CPU FUNCTION                                 
  7  -> zil_claim                             zp2/test1
  7   | zil_claim:entry                       
  7    -> dmu_tx_get_txg                      
  7    <- dmu_tx_get_txg                      
  7    -> spa_open                            
  7      -> spa_open_common                   
  7        -> spa_lookup                      
  7          -> spa_name_compare              
  7          <- spa_name_compare              
  7          -> spa_name_compare              
  7          <- spa_name_compare              
  7        <- spa_lookup                      
  7        -> spa_open_ref                    
  7        <- spa_open_ref                    
  7      <- spa_open_common                   
  7    <- spa_open                            
  7    -> spa_get_dsl                         
  7    <- spa_get_dsl                         
  7    -> spa_open_ref                        
  7    <- spa_open_ref                        
  7    -> spa_open_ref                        
  7    <- spa_open_ref                        
  7    -> dmu_buf_set_user_ie                 
  7      -> dmu_buf_update_user               
  7      <- dmu_buf_update_user               
  7    <- dmu_buf_set_user_ie                 
  7    -> spa_open_ref                        
  7    <- spa_open_ref                        
  7    -> spa_open_ref                        
  7    <- spa_open_ref                        
  7    -> dmu_object_info_from_db             
  7      -> dmu_object_info_from_dnode        
  7      <- dmu_object_info_from_dnode        
  7    <- dmu_object_info_from_db             
  7    -> dmu_object_info_from_db             
  7      -> dmu_object_info_from_dnode        
  7      <- dmu_object_info_from_dnode        
  7    <- dmu_object_info_from_db             
  7    -> spa_open_ref                        
  7    <- spa_open_ref                        
  7    -> dmu_object_info_from_db             
  7      -> dmu_object_info_from_dnode        
  7      <- dmu_object_info_from_dnode        
  7    <- dmu_object_info_from_db             
  7    -> spa_get_dsl                         
  7    <- spa_get_dsl                         
  7    -> spa_get_dsl                         
  7    <- spa_get_dsl                         
  7    -> dmu_buf_set_user_ie                 
  7      -> dmu_buf_update_user               
  7      <- dmu_buf_update_user               
  7    <- dmu_buf_set_user_ie                 
  7    -> spa_get_dsl                         
  7    <- spa_get_dsl                         
  7    -> spa_get_dsl                         
  7    <- spa_get_dsl                         
  7    -> dmu_objset_open_impl                
  7      -> spa_guid                          
  7      <- spa_guid                          
  7      -> spa_version                       
  7      <- spa_version                       
  7      -> zil_alloc                         
  7        -> dmu_objset_spa                  
  7        <- dmu_objset_spa                  
  7        -> dmu_objset_pool                 
  7        <- dmu_objset_pool                 
  7        -> dmu_objset_logbias              
  7        <- dmu_objset_logbias              
  7        -> dmu_objset_syncprop             
  7        <- dmu_objset_syncprop             
  7      <- zil_alloc                         
  7      -> dmu_zfetch_init                   
  7      <- dmu_zfetch_init                   
  7      -> dmu_zfetch_init                   
  7      <- dmu_zfetch_init                   
  7      -> dmu_zfetch_init                   
  7      <- dmu_zfetch_init                   
  7    <- dmu_objset_open_impl                
  7    -> dmu_objset_zil                      
  7    <- dmu_objset_zil                      
  7    -> zil_header_in_syncing_context       
  7    <- zil_header_in_syncing_context       
  7    -> spa_get_log_state                   
  7    <- spa_get_log_state                   
  7    -> zil_parse                           
  7      -> zil_bp_tree_init                  
  7      <- zil_bp_tree_init                  
  7      -> zil_claim_log_block               
  7      <- zil_claim_log_block               
  7      -> zil_read_log_block                
  7        -> spa_guid                        
  7        <- spa_guid                        
  7      <- zil_read_log_block                
  7      -> zil_claim_log_record              
  7        -> zil_claim_log_block             
  7        <- zil_claim_log_block             
  7      <- zil_claim_log_record              
  7      -> zil_claim_log_record              
  7        -> zil_claim_log_block             
  7        <- zil_claim_log_block             
  7      <- zil_claim_log_record              
  7      -> zil_claim_log_record              
  7        -> zil_claim_log_block             
  7        <- zil_claim_log_block             
  7      <- zil_claim_log_record              
  7      -> zil_claim_log_block               
  7        -> zil_bp_tree_add                 
  7        <- zil_bp_tree_add                 
  7        -> spa_config_enter                
  7        <- spa_config_enter                
  7        -> spa_config_exit                 
  7        <- spa_config_exit                 
  7        -> spa_config_enter                
  7        <- spa_config_enter                
  7        -> spa_writeable                   
  7        <- spa_writeable                   
  7        -> spa_writeable                   
  7        <- spa_writeable                   
  7        -> spa_config_exit                 
  7        <- spa_config_exit                 
  7        -> spa_claim_notify                
  7        <- spa_claim_notify                
  7      <- zil_claim_log_block               
  7      -> zil_read_log_block                
  7        -> spa_guid                        
  7        <- spa_guid                        
  7      <- zil_read_log_block                
  7      -> zil_claim_log_record              
  7        -> zil_claim_log_block             
  7        <- zil_claim_log_block             
  7      <- zil_claim_log_record              
  7      -> zil_claim_log_record              
  7        -> zil_claim_log_block             
  7        <- zil_claim_log_block             
  7      <- zil_claim_log_record              
  7      -> zil_claim_log_record              
  7        -> zil_claim_log_block             
  7        <- zil_claim_log_block             
  7      <- zil_claim_log_record              
  7      -> zil_claim_log_record              
  7        -> zil_claim_log_block             
  7        <- zil_claim_log_block             
  7      <- zil_claim_log_record              
  7      -> zil_claim_log_record              
  7        -> zil_claim_log_block             
  7        <- zil_claim_log_block             
  7      <- zil_claim_log_record              
  7      -> zil_claim_log_record              
  7        -> zil_claim_log_block             
  7        <- zil_claim_log_block             
  7      <- zil_claim_log_record              
  7      -> zil_claim_log_record              
  7        -> zil_claim_log_block             
  7        <- zil_claim_log_block             
  7      <- zil_claim_log_record              
  7      -> zil_claim_log_record              
  7        -> zil_claim_log_block             
  7        <- zil_claim_log_block             
  7      <- zil_claim_log_record              
  7      -> zil_claim_log_block               
  7        -> zil_bp_tree_add                 
  7          -> zil_bp_compare                
  7          <- zil_bp_compare                
  7        <- zil_bp_tree_add                 
  7        -> spa_config_enter                
  7        <- spa_config_enter                
  7        -> spa_config_exit                 
  7        <- spa_config_exit                 
  7        -> spa_config_enter                
  7        <- spa_config_enter                
  7        -> spa_writeable                   
  7        <- spa_writeable                   
  7        -> spa_writeable                   
  7        <- spa_writeable                   
  7        -> spa_config_exit                 
  7        <- spa_config_exit                 
  7        -> spa_claim_notify                
  7        <- spa_claim_notify                
  7      <- zil_claim_log_block               
  7      -> zil_read_log_block                
  7        -> spa_guid                        
  7        <- spa_guid                        
  7      <- zil_read_log_block                
  7      -> zil_claim_log_record              
  7        -> zil_claim_log_block             
  7        <- zil_claim_log_block             
  7      <- zil_claim_log_record              
  7      -> zil_claim_log_block               
  7        -> zil_bp_tree_add                 
  7          -> zil_bp_compare                
  7          <- zil_bp_compare                
  7          -> zil_bp_compare                
  7          <- zil_bp_compare                
  7        <- zil_bp_tree_add                 
  7        -> spa_config_enter                
  7        <- spa_config_enter                
  7        -> spa_config_exit                 
  7        <- spa_config_exit                 
  7        -> spa_config_enter                
  7        <- spa_config_enter                
  7        -> spa_writeable                   
  7        <- spa_writeable                   
  7        -> spa_writeable                   
  7        <- spa_writeable                   
  7        -> spa_config_exit                 
  7        <- spa_config_exit                 
  7        -> spa_claim_notify                
  7        <- spa_claim_notify                
  7      <- zil_claim_log_block               
  7      -> zil_read_log_block                
  7        -> spa_guid                        
  7        <- spa_guid                        
  7      <- zil_read_log_block                
  7      -> zil_claim_log_record              
  7        -> zil_claim_log_block             
  7        <- zil_claim_log_block             
  7      <- zil_claim_log_record              
  7      -> zil_claim_log_record              
  7        -> zil_claim_log_block             
  7        <- zil_claim_log_block             
  7      <- zil_claim_log_record              
  7      -> zil_claim_log_record              
  7        -> zil_claim_log_block             
  7        <- zil_claim_log_block             
  7      <- zil_claim_log_record              
  7      -> zil_claim_log_record              
  7        -> zil_claim_log_block             
  7        <- zil_claim_log_block             
  7      <- zil_claim_log_record              
  7      -> zil_claim_log_record              
  7        -> zil_claim_log_block             
  7        <- zil_claim_log_block             
  7      <- zil_claim_log_record              
  7      -> zil_claim_log_record              
  7        -> zil_claim_log_block             
  7        <- zil_claim_log_block             
  7      <- zil_claim_log_record              
  7      -> zil_claim_log_record              
  7        -> zil_claim_log_block             
  7        <- zil_claim_log_block             
  7      <- zil_claim_log_record              
  7      -> zil_claim_log_record              
  7        -> zil_claim_log_block             
  7        <- zil_claim_log_block             
  7      <- zil_claim_log_record              
  7      -> zil_claim_log_record              
  7        -> zil_claim_log_block             
  7        <- zil_claim_log_block             
  7      <- zil_claim_log_record              
  7      -> zil_claim_log_record              
  7        -> zil_claim_log_block             
  7        <- zil_claim_log_block             
  7      <- zil_claim_log_record              
  7      -> zil_claim_log_record              
  7        -> zil_claim_log_block             
  7        <- zil_claim_log_block             
  7      <- zil_claim_log_record              
  7      -> zil_claim_log_record              
  7        -> zil_claim_log_block             
  7        <- zil_claim_log_block             
  7      <- zil_claim_log_record              
  7      -> zil_claim_log_record              
  7        -> zil_claim_log_block             
  7        <- zil_claim_log_block             
  7      <- zil_claim_log_record              
  7      -> zil_claim_log_record              
  7        -> zil_claim_log_block             
  7        <- zil_claim_log_block             
  7      <- zil_claim_log_record              
  7      -> zil_claim_log_record              
  7        -> zil_claim_log_block             
  7        <- zil_claim_log_block             
  7      <- zil_claim_log_record              
  7      -> zil_claim_log_block               
  7        -> zil_bp_tree_add                 
  7          -> zil_bp_compare                
  7          <- zil_bp_compare                
  7          -> zil_bp_compare                
  7          <- zil_bp_compare                
  7        <- zil_bp_tree_add                 
  7        -> spa_config_enter                
  7        <- spa_config_enter                
  7        -> spa_config_exit                 
  7        <- spa_config_exit                 
  7        -> spa_config_enter                
  7        <- spa_config_enter                
  7        -> spa_writeable                   
  7        <- spa_writeable                   
  7        -> spa_writeable                   
  7        <- spa_writeable                   
  7        -> spa_config_exit                 
  7        <- spa_config_exit                 
  7        -> spa_claim_notify                
  7        <- spa_claim_notify                
  7      <- zil_claim_log_block               
  7      -> zil_read_log_block                
  7        -> spa_guid                        
  7        <- spa_guid                        
  7      <- zil_read_log_block                
  7      -> zil_claim_log_record              
  7        -> zil_claim_log_block             
  7        <- zil_claim_log_block             
  7      <- zil_claim_log_record              
  7      -> zil_claim_log_block               
  7        -> zil_bp_tree_add                 
  7          -> zil_bp_compare                
  7          <- zil_bp_compare                
  7          -> zil_bp_compare                
  7          <- zil_bp_compare                
  7          -> zil_bp_compare                
  7          <- zil_bp_compare                
  7        <- zil_bp_tree_add                 
  7        -> spa_config_enter                
  7        <- spa_config_enter                
  7        -> spa_config_exit                 
  7        <- spa_config_exit                 
  7        -> spa_config_enter                
  7        <- spa_config_enter                
  7        -> spa_writeable                   
  7        <- spa_writeable                   
  7        -> spa_writeable                   
  7        <- spa_writeable                   
  7        -> spa_config_exit                 
  7        <- spa_config_exit                 
  7        -> spa_claim_notify                
  7        <- spa_claim_notify                
  7      <- zil_claim_log_block               
  7      -> zil_read_log_block                
  7        -> spa_guid                        
  7        <- spa_guid                        
  7      <- zil_read_log_block                
  7      -> zil_claim_log_record              
  7        -> zil_claim_log_block             
  7        <- zil_claim_log_block             
  7      <- zil_claim_log_record              
  7      -> zil_claim_log_record              
  7        -> zil_claim_log_block             
  7        <- zil_claim_log_block             
  7      <- zil_claim_log_record              
  7      -> zil_claim_log_record              
  7        -> zil_claim_log_block             
  7        <- zil_claim_log_block             
  7      <- zil_claim_log_record              
  7      -> zil_claim_log_record              
  7        -> zil_claim_log_block             
  7        <- zil_claim_log_block             
  7      <- zil_claim_log_record              
  7      -> zil_claim_log_record              
  7        -> zil_claim_log_block             
  7        <- zil_claim_log_block             
  7      <- zil_claim_log_record              
  7      -> zil_claim_log_record              
  7        -> zil_claim_log_block             
  7        <- zil_claim_log_block             
  7      <- zil_claim_log_record              
  7      -> zil_claim_log_record              
  7        -> zil_claim_log_block             
  7        <- zil_claim_log_block             
  7      <- zil_claim_log_record              
  7      -> zil_claim_log_record              
  7        -> zil_claim_log_block             
  7        <- zil_claim_log_block             
  7      <- zil_claim_log_record              
  7      -> zil_claim_log_record              
  7        -> zil_claim_log_block             
  7        <- zil_claim_log_block             
  7      <- zil_claim_log_record              
  7      -> zil_claim_log_record              
  7        -> zil_claim_log_block             
  7        <- zil_claim_log_block             
  7      <- zil_claim_log_record              
  7      -> zil_claim_log_record              
  7        -> zil_claim_log_block             
  7        <- zil_claim_log_block             
  7      <- zil_claim_log_record              
  7      -> zil_claim_log_record              
  7        -> zil_claim_log_block             
  7        <- zil_claim_log_block             
  7      <- zil_claim_log_record              
  7      -> zil_claim_log_record              
  7        -> zil_claim_log_block             
  7        <- zil_claim_log_block             
  7      <- zil_claim_log_record              
  7      -> zil_claim_log_record              
  7        -> zil_claim_log_block             
  7        <- zil_claim_log_block             
  7      <- zil_claim_log_record              
  7      -> zil_claim_log_block               
  7        -> zil_bp_tree_add                 
  7          -> zil_bp_compare                
  7          <- zil_bp_compare                
  7          -> zil_bp_compare                
  7          <- zil_bp_compare                
  7          -> zil_bp_compare                
  7          <- zil_bp_compare                
  7        <- zil_bp_tree_add                 
  7        -> spa_config_enter                
  7        <- spa_config_enter                
  7        -> spa_config_exit                 
  7        <- spa_config_exit                 
  7        -> spa_config_enter                
  7        <- spa_config_enter                
  7        -> spa_writeable                   
  7        <- spa_writeable                   
  7        -> spa_writeable                   
  7        <- spa_writeable                   
  7        -> spa_config_exit                 
  7        <- spa_config_exit                 
  7        -> spa_claim_notify                
  7        <- spa_claim_notify                
  7      <- zil_claim_log_block               
  7      -> zil_read_log_block                
  7        -> spa_guid                        
  7        <- spa_guid                        
  7        -> spa_guid                        
  7        <- spa_guid                        
  7        -> spa_config_enter                
  7        <- spa_config_enter                
  7        -> spa_get_random                  
  7        <- spa_get_random                  
  7      <- zil_read_log_block                
  7      -> zil_bp_tree_fini                  
  7      <- zil_bp_tree_fini                  
  7    <- zil_parse                           
  7    -> dmu_objset_ds                       
  7    <- dmu_objset_ds                       
  7    -> dmu_objset_rele                     
  7      -> spa_get_dsl                       
  7      <- spa_get_dsl                       
  7    <- dmu_objset_rele                     
  7  <- zil_claim                             
  7  -> zil_claim                             zp2/test2
  7   | zil_claim:entry                       
  7    -> dmu_tx_get_txg                      
  7    <- dmu_tx_get_txg                      
  7    -> spa_open                            
  7      -> spa_open_common                   
  7        -> spa_lookup                      
  7          -> spa_name_compare              
  7          <- spa_name_compare              
  7          -> spa_name_compare              
  7          <- spa_name_compare              
  7        <- spa_lookup                      
  7        -> spa_open_ref                    
  7        <- spa_open_ref                    
  7      <- spa_open_common                   
  7    <- spa_open                            
  7    -> spa_get_dsl                         
  7    <- spa_get_dsl                         
  7    -> spa_open_ref                        
  7    <- spa_open_ref                        
  7    -> spa_open_ref                        
  7    <- spa_open_ref                        
  7    -> dmu_buf_set_user_ie                 
  7      -> dmu_buf_update_user               
  7      <- dmu_buf_update_user               
  7    <- dmu_buf_set_user_ie                 
  7    -> spa_open_ref                        
  7    <- spa_open_ref                        
  7    -> spa_open_ref                        
  7    <- spa_open_ref                        
  7    -> dmu_object_info_from_db             
  7      -> dmu_object_info_from_dnode        
  7      <- dmu_object_info_from_dnode        
  7    <- dmu_object_info_from_db             
  7    -> dmu_object_info_from_db             
  7      -> dmu_object_info_from_dnode        
  7      <- dmu_object_info_from_dnode        
  7    <- dmu_object_info_from_db             
  7    -> spa_open_ref                        
  7    <- spa_open_ref                        
  7    -> dmu_object_info_from_db             
  7      -> dmu_object_info_from_dnode        
  7      <- dmu_object_info_from_dnode        
  7    <- dmu_object_info_from_db             
  7    -> spa_get_dsl                         
  7    <- spa_get_dsl                         
  7    -> spa_get_dsl                         
  7    <- spa_get_dsl                         
  7    -> dmu_buf_set_user_ie                 
  7      -> dmu_buf_update_user               
  7      <- dmu_buf_update_user               
  7    <- dmu_buf_set_user_ie                 
  7    -> spa_get_dsl                         
  7    <- spa_get_dsl                         
  7    -> spa_get_dsl                         
  7    <- spa_get_dsl                         
  7    -> dmu_objset_open_impl                
  7      -> spa_guid                          
  7      <- spa_guid                          
  7      -> spa_version                       
  7      <- spa_version                       
  7      -> zil_alloc                         
  7        -> dmu_objset_spa                  
  7        <- dmu_objset_spa                  
  7        -> dmu_objset_pool                 
  7        <- dmu_objset_pool                 
  7        -> dmu_objset_logbias              
  7        <- dmu_objset_logbias              
  7        -> dmu_objset_syncprop             
  7        <- dmu_objset_syncprop             
  7      <- zil_alloc                         
  7      -> dmu_zfetch_init                   
  7      <- dmu_zfetch_init                   
  7      -> dmu_zfetch_init                   
  7      <- dmu_zfetch_init                   
  7      -> dmu_zfetch_init                   
  7      <- dmu_zfetch_init                   
  7    <- dmu_objset_open_impl                
  7    -> dmu_objset_zil                      
  7    <- dmu_objset_zil                      
  7    -> zil_header_in_syncing_context       
  7    <- zil_header_in_syncing_context       
  7    -> spa_get_log_state                   
  7    <- spa_get_log_state                   
  7    -> zil_parse                           
  7      -> zil_bp_tree_init                  
  7      <- zil_bp_tree_init                  
  7      -> zil_claim_log_block               
  7      <- zil_claim_log_block               
  7      -> zil_read_log_block                
  7        -> spa_guid                        
  7        <- spa_guid                        
  7      <- zil_read_log_block                
  7      -> zil_claim_log_record              
  7        -> zil_claim_log_block             
  7        <- zil_claim_log_block             
  7      <- zil_claim_log_record              
  7      -> zil_claim_log_record              
  7        -> zil_claim_log_block             
  7        <- zil_claim_log_block             
  7      <- zil_claim_log_record              
  7      -> zil_claim_log_record              
  7        -> zil_claim_log_block             
  7        <- zil_claim_log_block             
  7      <- zil_claim_log_record              
  7      -> zil_claim_log_record              
  7        -> zil_claim_log_block             
  7        <- zil_claim_log_block             
  7      <- zil_claim_log_record              
  7      -> zil_claim_log_block               
  7        -> zil_bp_tree_add                 
  7        <- zil_bp_tree_add                 
  7        -> spa_config_enter                
  7        <- spa_config_enter                
  7        -> spa_config_exit                 
  7        <- spa_config_exit                 
  7        -> spa_config_enter                
  7        <- spa_config_enter                
  7        -> spa_writeable                   
  7        <- spa_writeable                   
  7        -> spa_writeable                   
  7        <- spa_writeable                   
  7        -> spa_config_exit                 
  7        <- spa_config_exit                 
  7        -> spa_claim_notify                
  7        <- spa_claim_notify                
  7      <- zil_claim_log_block               
  7      -> zil_read_log_block                
  7        -> spa_guid                        
  7        <- spa_guid                        
  7      <- zil_read_log_block                
  7      -> zil_claim_log_record              
  7        -> zil_claim_log_block             
  7        <- zil_claim_log_block             
  7      <- zil_claim_log_record              
  7      -> zil_claim_log_record              
  7        -> zil_claim_log_block             
  7        <- zil_claim_log_block             
  7      <- zil_claim_log_record              
  7      -> zil_claim_log_record              
  7        -> zil_claim_log_block             
  7        <- zil_claim_log_block             
  7      <- zil_claim_log_record              
  7      -> zil_claim_log_record              
  7        -> zil_claim_log_block             
  7        <- zil_claim_log_block             
  7      <- zil_claim_log_record              
  7      -> zil_claim_log_record              
  7        -> zil_claim_log_block             
  7        <- zil_claim_log_block             
  7      <- zil_claim_log_record              
  7      -> zil_claim_log_record              
  7        -> zil_claim_log_block             
  7        <- zil_claim_log_block             
  7      <- zil_claim_log_record              
  7      -> zil_claim_log_record              
  7        -> zil_claim_log_block             
  7        <- zil_claim_log_block             
  7      <- zil_claim_log_record              
  7      -> zil_claim_log_record              
  7        -> zil_claim_log_block             
  7        <- zil_claim_log_block             
  7      <- zil_claim_log_record              
  7      -> zil_claim_log_record              
  7        -> zil_claim_log_block             
  7        <- zil_claim_log_block             
  7      <- zil_claim_log_record              
  7      -> zil_claim_log_record              
  7        -> zil_claim_log_block             
  7        <- zil_claim_log_block             
  7      <- zil_claim_log_record              
  7      -> zil_claim_log_block               
  7        -> zil_bp_tree_add                 
  7          -> zil_bp_compare                
  7          <- zil_bp_compare                
  7        <- zil_bp_tree_add                 
  7        -> spa_config_enter                
  7        <- spa_config_enter                
  7        -> spa_config_exit                 
  7        <- spa_config_exit                 
  7        -> spa_config_enter                
  7        <- spa_config_enter                
  7        -> spa_writeable                   
  7        <- spa_writeable                   
  7        -> spa_writeable                   
  7        <- spa_writeable                   
  7        -> spa_config_exit                 
  7        <- spa_config_exit                 
  7        -> spa_claim_notify                
  7        <- spa_claim_notify                
  7      <- zil_claim_log_block               
  7      -> zil_read_log_block                
  7        -> spa_guid                        
  7        <- spa_guid                        
  7      <- zil_read_log_block                
  7      -> zil_claim_log_record              
  7        -> zil_claim_log_block             
  7        <- zil_claim_log_block             
  7      <- zil_claim_log_record              
  7      -> zil_claim_log_block               
  7        -> zil_bp_tree_add                 
  7          -> zil_bp_compare                
  7          <- zil_bp_compare                
  7          -> zil_bp_compare                
  7          <- zil_bp_compare                
  7        <- zil_bp_tree_add                 
  7        -> spa_config_enter                
  7        <- spa_config_enter                
  7        -> spa_config_exit                 
  7        <- spa_config_exit                 
  7        -> spa_config_enter                
  7        <- spa_config_enter                
  7        -> spa_writeable                   
  7        <- spa_writeable                   
  7        -> spa_writeable                   
  7        <- spa_writeable                   
  7        -> spa_config_exit                 
  7        <- spa_config_exit                 
  7        -> spa_claim_notify                
  7        <- spa_claim_notify                
  7      <- zil_claim_log_block               
  7      -> zil_read_log_block                
  7        -> spa_guid                        
  7        <- spa_guid                        
  7      <- zil_read_log_block                
  7      -> zil_claim_log_record              
  7        -> zil_claim_log_block             
  7        <- zil_claim_log_block             
  7      <- zil_claim_log_record              
  7      -> zil_claim_log_record              
  7        -> zil_claim_log_block             
  7        <- zil_claim_log_block             
  7      <- zil_claim_log_record              
  7      -> zil_claim_log_record              
  7        -> zil_claim_log_block             
  7        <- zil_claim_log_block             
  7      <- zil_claim_log_record              
  7      -> zil_claim_log_record              
  7        -> zil_claim_log_block             
  7        <- zil_claim_log_block             
  7      <- zil_claim_log_record              
  7      -> zil_claim_log_record              
  7        -> zil_claim_log_block             
  7        <- zil_claim_log_block             
  7      <- zil_claim_log_record              
  7      -> zil_claim_log_record              
  7        -> zil_claim_log_block             
  7        <- zil_claim_log_block             
  7      <- zil_claim_log_record              
  7      -> zil_claim_log_record              
  7        -> zil_claim_log_block             
  7        <- zil_claim_log_block             
  7      <- zil_claim_log_record              
  7      -> zil_claim_log_record              
  7        -> zil_claim_log_block             
  7        <- zil_claim_log_block             
  7      <- zil_claim_log_record              
  7      -> zil_claim_log_record              
  7        -> zil_claim_log_block             
  7        <- zil_claim_log_block             
  7      <- zil_claim_log_record              
  7      -> zil_claim_log_record              
  7        -> zil_claim_log_block             
  7        <- zil_claim_log_block             
  7      <- zil_claim_log_record              
  7      -> zil_claim_log_record              
  7        -> zil_claim_log_block             
  7        <- zil_claim_log_block             
  7      <- zil_claim_log_record              
  7      -> zil_claim_log_record              
  7        -> zil_claim_log_block             
  7        <- zil_claim_log_block             
  7      <- zil_claim_log_record              
  7      -> zil_claim_log_record              
  7        -> zil_claim_log_block             
  7        <- zil_claim_log_block             
  7      <- zil_claim_log_record              
  7      -> zil_claim_log_block               
  7        -> zil_bp_tree_add                 
  7          -> zil_bp_compare                
  7          <- zil_bp_compare                
  7          -> zil_bp_compare                
  7          <- zil_bp_compare                
  7        <- zil_bp_tree_add                 
  7        -> spa_config_enter                
  7        <- spa_config_enter                
  7        -> spa_config_exit                 
  7        <- spa_config_exit                 
  7        -> spa_config_enter                
  7        <- spa_config_enter                
  7        -> spa_writeable                   
  7        <- spa_writeable                   
  7        -> spa_writeable                   
  7        <- spa_writeable                   
  7        -> spa_config_exit                 
  7        <- spa_config_exit                 
  7        -> spa_claim_notify                
  7        <- spa_claim_notify                
  7      <- zil_claim_log_block               
  7      -> zil_read_log_block                
  7        -> spa_guid                        
  7        <- spa_guid                        
  7      <- zil_read_log_block                
  7      -> zil_claim_log_record              
  7        -> zil_claim_log_block             
  7        <- zil_claim_log_block             
  7      <- zil_claim_log_record              
  7      -> zil_claim_log_block               
  7        -> zil_bp_tree_add                 
  7          -> zil_bp_compare                
  7          <- zil_bp_compare                
  7          -> zil_bp_compare                
  7          <- zil_bp_compare                
  7          -> zil_bp_compare                
  7          <- zil_bp_compare                
  7        <- zil_bp_tree_add                 
  7        -> spa_config_enter                
  7        <- spa_config_enter                
  7        -> spa_config_exit                 
  7        <- spa_config_exit                 
  7        -> spa_config_enter                
  7        <- spa_config_enter                
  7        -> spa_writeable                   
  7        <- spa_writeable                   
  7        -> spa_writeable                   
  7        <- spa_writeable                   
  7        -> spa_config_exit                 
  7        <- spa_config_exit                 
  7        -> spa_claim_notify                
  7        <- spa_claim_notify                
  7      <- zil_claim_log_block               
  7      -> zil_read_log_block                
  7        -> spa_guid                        
  7        <- spa_guid                        
  7      <- zil_read_log_block                
  7      -> zil_claim_log_record              
  7        -> zil_claim_log_block             
  7        <- zil_claim_log_block             
  7      <- zil_claim_log_record              
  7      -> zil_claim_log_record              
  7        -> zil_claim_log_block             
  7        <- zil_claim_log_block             
  7      <- zil_claim_log_record              
  7      -> zil_claim_log_record              
  7        -> zil_claim_log_block             
  7        <- zil_claim_log_block             
  7      <- zil_claim_log_record              
  7      -> zil_claim_log_record              
  7        -> zil_claim_log_block             
  7        <- zil_claim_log_block             
  7      <- zil_claim_log_record              
  7      -> zil_claim_log_record              
  7        -> zil_claim_log_block             
  7        <- zil_claim_log_block             
  7      <- zil_claim_log_record              
  7      -> zil_claim_log_record              
  7        -> zil_claim_log_block             
  7        <- zil_claim_log_block             
  7      <- zil_claim_log_record              
  7      -> zil_claim_log_record              
  7        -> zil_claim_log_block             
  7        <- zil_claim_log_block             
  7      <- zil_claim_log_record              
  7      -> zil_claim_log_record              
  7        -> zil_claim_log_block             
  7        <- zil_claim_log_block             
  7      <- zil_claim_log_record              
  7      -> zil_claim_log_record              
  7        -> zil_claim_log_block             
  7        <- zil_claim_log_block             
  7      <- zil_claim_log_record              
  7      -> zil_claim_log_record              
  7        -> zil_claim_log_block             
  7        <- zil_claim_log_block             
  7      <- zil_claim_log_record              
  7      -> zil_claim_log_record              
  7        -> zil_claim_log_block             
  7        <- zil_claim_log_block             
  7      <- zil_claim_log_record              
  7      -> zil_claim_log_record              
  7        -> zil_claim_log_block             
  7        <- zil_claim_log_block             
  7      <- zil_claim_log_record              
  7      -> zil_claim_log_record              
  7        -> zil_claim_log_block             
  7        <- zil_claim_log_block             
  7      <- zil_claim_log_record              
  7      -> zil_claim_log_record              
  7        -> zil_claim_log_block             
  7        <- zil_claim_log_block             
  7      <- zil_claim_log_record              
  7      -> zil_claim_log_block               
  7        -> zil_bp_tree_add                 
  7          -> zil_bp_compare                
  7          <- zil_bp_compare                
  7          -> zil_bp_compare                
  7          <- zil_bp_compare                
  7          -> zil_bp_compare                
  7          <- zil_bp_compare                
  7        <- zil_bp_tree_add                 
  7        -> spa_config_enter                
  7        <- spa_config_enter                
  7        -> spa_config_exit                 
  7        <- spa_config_exit                 
  7        -> spa_config_enter                
  7        <- spa_config_enter                
  7        -> spa_writeable                   
  7        <- spa_writeable                   
  7        -> spa_writeable                   
  7        <- spa_writeable                   
  7        -> spa_config_exit                 
  7        <- spa_config_exit                 
  7        -> spa_claim_notify                
  7        <- spa_claim_notify                
  7      <- zil_claim_log_block               
  7      -> zil_read_log_block                
  7        -> spa_guid                        
  7        <- spa_guid                        
  7        -> spa_guid                        
  7        <- spa_guid                        
  7        -> spa_config_enter                
  7        <- spa_config_enter                
  7        -> spa_get_random                  
  7        <- spa_get_random                  
  9  <- zil_read_log_block                    
  9  -> zil_bp_tree_fini                      
  9  <- zil_bp_tree_fini                      
  9  <- zil_parse                             
  9  -> dmu_objset_ds                         
  9  <- dmu_objset_ds                         
  9  -> dmu_objset_rele                       
  9    -> spa_get_dsl                         
  9    <- spa_get_dsl                         
  9  <- dmu_objset_rele                       
  9  <- zil_claim                             
  9  -> zil_claim                             zp2
  9   | zil_claim:entry                       
  9    -> dmu_tx_get_txg                      
  9    <- dmu_tx_get_txg                      
  9    -> spa_open                            
  9      -> spa_open_common                   
  9        -> spa_lookup                      
  9          -> spa_name_compare              
  9          <- spa_name_compare              
  9          -> spa_name_compare              
  9          <- spa_name_compare              
  9        <- spa_lookup                      
  9        -> spa_open_ref                    
  9        <- spa_open_ref                    
  9      <- spa_open_common                   
  9    <- spa_open                            
  9    -> spa_get_dsl                         
  9    <- spa_get_dsl                         
  9    -> spa_open_ref                        
  9    <- spa_open_ref                        
  9    -> dmu_object_info_from_db             
  9      -> dmu_object_info_from_dnode        
  9      <- dmu_object_info_from_dnode        
  9    <- dmu_object_info_from_db             
  9    -> dmu_object_info_from_db             
  9      -> dmu_object_info_from_dnode        
  9      <- dmu_object_info_from_dnode        
  9    <- dmu_object_info_from_db             
  9    -> spa_open_ref                        
  9    <- spa_open_ref                        
  9    -> dmu_object_info_from_db             
  9      -> dmu_object_info_from_dnode        
  9      <- dmu_object_info_from_dnode        
  9    <- dmu_object_info_from_db             
  9    -> spa_get_dsl                         
  9    <- spa_get_dsl                         
  9    -> spa_get_dsl                         
  9    <- spa_get_dsl                         
  9    -> dmu_buf_set_user_ie                 
  9      -> dmu_buf_update_user               
  9      <- dmu_buf_update_user               
  9    <- dmu_buf_set_user_ie                 
  9    -> spa_get_dsl                         
  9    <- spa_get_dsl                         
  9    -> spa_get_dsl                         
  9    <- spa_get_dsl                         
  9    -> dmu_objset_open_impl                
  9      -> spa_guid                          
  9      <- spa_guid                          
  9      -> spa_version                       
  9      <- spa_version                       
  9      -> zil_alloc                         
  9        -> dmu_objset_spa                  
  9        <- dmu_objset_spa                  
  9        -> dmu_objset_pool                 
  9        <- dmu_objset_pool                 
  9        -> dmu_objset_logbias              
  9        <- dmu_objset_logbias              
  9        -> dmu_objset_syncprop             
  9        <- dmu_objset_syncprop             
  9      <- zil_alloc                         
  9      -> dmu_zfetch_init                   
  9      <- dmu_zfetch_init                   
  9      -> dmu_zfetch_init                   
  9      <- dmu_zfetch_init                   
  9      -> dmu_zfetch_init                   
  9      <- dmu_zfetch_init                   
  9    <- dmu_objset_open_impl                
  9    -> dmu_objset_zil                      
  9    <- dmu_objset_zil                      
  9    -> zil_header_in_syncing_context       
  9    <- zil_header_in_syncing_context       
  9    -> spa_get_log_state                   
  9    <- spa_get_log_state                   
  9    -> dmu_objset_rele                     
  9      -> spa_get_dsl                       
  9      <- spa_get_dsl                       
  9      -> dmu_objset_evict                  
  9        -> dmu_objset_evict_dbufs          
  9        <- dmu_objset_evict_dbufs          
  9        -> dmu_zfetch_rele                 
  9        <- dmu_zfetch_rele                 
  9        -> dmu_zfetch_rele                 
  9        <- dmu_zfetch_rele                 
  9        -> dmu_zfetch_rele                 
  9        <- dmu_zfetch_rele                 
  9        -> zil_free                        
  9        <- zil_free                        
  9      <- dmu_objset_evict                  
  9    <- dmu_objset_rele                     
  9  <- zil_claim                             


